<svg viewBox="0 0 600 125" xmlns="http://www.w3.org/2000/svg">
  <g fill="none" fill-rule="evenodd" transform="translate(10 8)">
    <path d="M165.39936 20.9682c.07554.42625-.10143.90202-.58379 1.07747-.40898.15392-.6863.12917-1.0942-.10872-.56546-.31968-4.4923-1.78466-4.4923-1.78466-2.3179-.79007-6.2523-1.00965-9.06767-1.00965l-7.98749.02045c-.15539 0-.82227.06674-1.2075.41872-.382.3552-.46942.70934-.46942.86865 0 0-.02158 45.31615.13381 46.41622.15755 1.56077 2.22187 2.82984 2.22187 3.6156 0 .31324-.48668 1.33904-.8007 1.49404h-21.3586c-.47157 0-.85573-.7115-.85573-1.1808 0-.9397.94098-1.56293 1.41362-2.34762.62588-1.25184.93882-3.12584.93882-4.37446 0-.47146-.0259-42.08697-.0259-43.8049 0-.16038.09496-1.071-1.10284-1.10545l-7.79649-.02045c-2.824 0-6.75516.21958-9.07414 1.00965 0 0-3.93116 1.46498-4.50092 1.78466-.40682.23789-.68523.26264-1.09529.10872-.47588-.17545-.6561-.65122-.57624-1.07747 0 0 4.10813-16.33965 4.39625-17.0716.5989-1.53708 1.51398-1.32611 2.52941-1.37132 3.6657-.00861 49.93315-.00861 53.59669 0 1.01327.0452 1.92835-.16576 2.52401 1.37132.28488.73195 4.33474 17.0716 4.33474 17.0716zm67.78468-15.99843c-.48559.46823-2.74307 2.65546-3.2265 3.12477-.16079.15823-.6453.78038-.80717.78038l-21.42335 34.86976v17.98007c0 .155.31618 3.90838.47157 5.31523.1597 1.564 1.56793 2.34654 1.56793 3.75446 0 .31-.15647 1.09577-.47049 1.09577h-21.00358c-.46833 0-.46833-1.09577-.46833-1.409 0-.93754.78235-1.2497 1.09313-2.03223.31725-.62539.62911-1.409.78666-2.19046.31402-4.84808.31402-8.91146.31402-13.91454v-7.50353c-.15647-.78577-.62804-2.1883-1.10068-2.81154l-18.349-31.27783c-.16295-.15285-.96795-1.40685-1.29168-1.71685-.32373-.4693-1.93483-2.4983-2.0967-2.818-.96902-1.0893-1.7762-1.55754-3.22758-2.02792-.48667-.15716-.48667-.46716-.48667-.78146V2.9386c0-.155.48667-.62969.48667-.62969h25.82068c.48452 0 .96687.6297.96687 1.09793 0 1.09253-1.12873 1.72007-1.12873 2.96761 0 1.09792.48451 2.34546.96795 3.28515l6.45733 10.94477c.15862.15715.96795 1.41007 1.12658 1.72115.15862.15716.96903.93862.96903.93862h.32373l.64314-1.09577 8.07058-13.13415c.32265-.62539 1.13198-1.72008 1.13198-2.65977 0-.77715-.80933-1.4047-.80933-2.50261 0-2.02793 3.87073-1.56293 5.16565-1.56293h2.58228c2.41934 0 14.04016.31216 16.45842.31216.4856.47254.4856.93969.4856 1.56723zm68.42999 14.07061l.30754 46.90814c0 2.18723 2.35568 3.438 2.35568 4.84592 0 .62538-.15971 1.09577-.62804 1.09577H282.801c-.78018 0-1.72223-.47039-1.72223-1.409 0-.62646.62587-.93646.62587-1.564 0-.31215 0-.4693-.31402-.78146-.15323-.62754-.93773-1.87723-.93773-2.03116l-19.75075-29.3963c-.47373-.77715-1.72332-2.18722-2.50999-2.9676l-.15539 1.09253-.78666 20.48161v4.21946c0 .93646.47265 5.1613.62804 6.09884.31401 1.72116 1.41254 3.28408 2.35027 4.84808v.31323c0 .62538 0 1.09577-.62587 1.09577h-21.31652c-.7802 0-1.09853-.78577-1.09853-1.409v-.62646c.62804-.62216 1.72548-1.87508 1.72548-2.81477l.78667-4.84377v-9.694c0-9.53469-.15971-19.07691-.15971-28.61483 0-3.90946.1597-7.6607.1597-11.413V9.50246c0-1.09362-.31833-2.1883-.78666-2.96546-.62695-1.099-2.03842-1.8783-2.03842-3.13015 0-.46824.31294-1.09793.94098-1.09793h26.4908c.62804 0 .7845.7847.7845 1.25185 0 1.25077-.62803 2.18938-.62803 3.44123 0 .47146-.15647 1.09254.15755 1.71792.15647.62431 1.09636 2.34762 1.25175 2.50154l15.83254 23.92284c0 .15823.9399 1.409 1.25607 1.7233.15432.1507.78235.78147.78235.78147h.15863c.15323-1.409.15323-3.438.15323-4.84593v-3.59946c0-2.50153-.31186-14.696-.31186-17.35468-.1597-2.97408-1.41038-5.47454-2.82184-7.81785v-.93753c0-.155.4694-.47254.4694-.47254h21.16114c.78126 0 1.09744.93969 1.09744 1.56723 0 .93861-1.09744 2.18615-1.41146 2.81369 0 .155-.15647.31215-.15647.47146-.62804 2.18615-.62804 4.53484-.62804 6.87815 0 1.56185 0 3.128.16079 4.68877zM375.2895 56.5656c0 5.15915-3.1337 12.03946-8.30582 13.91669-1.25392.62323-2.97616.78146-4.39086.78146l-11.28198.62538H316.0405c-.31402 0-.47048-.46823-.47048-.62538 0-.62862 2.98047-2.6587 2.98047-5.00415V7.00092c0-1.40469-2.66646-2.50154-2.66646-3.90838 0-.15285.15647-.78254.31186-.78254h39.18964c1.72332 0 4.8581.6297 6.7379.9397 7.52995 1.40791 11.75786 6.41099 13.01393 14.07168 0 .62646.15215 2.81477.15215 3.28408zm-18.01987-6.411s-.01942-25.63968-.01942-26.26722c-.31402-2.50046-3.07112-3.90839-5.93937-3.90839h-13.79412c-.78342 0-1.10608.57588-1.05536 1.40793 0 2.56827-.04316 30.01845-.04316 30.01845 0 1.97626-.2838 3.86856.7845 3.75338h12.38482c3.1337 0 7.6821-1.09577 7.6821-5.00415zm94.22045 20.4095c0 .62753-.47373 1.4359-1.87763 1.3907h-1.528c-5.78937 0-11.57334.01627-17.3584.01627h-2.89198c-.68415 0-1.6057.02893-2.04165-.77944v-.47146c0-.78039.74781-1.67487 1.01974-2.42834.27841-.7481 0-2.49831 0-2.49831l-1.1924-5.00523s-.16834-.1593-.3356-.1593c0-.15716-.51473-.15716-.51473-.15716H405.8852c-1.70498 0-1.87332 5.16238-1.87332 5.94922 0 1.55755 1.53232 2.81047 1.53232 4.37339 0 .47038-.341 1.0947-1.0219 1.0947h-23.65385c-.51366 0-.51366-.62432-.51366-.78362 0-1.56185 2.89523-2.34331 3.4078-4.21731l17.1868-56.2889c.33992-1.254.51042-2.50477.51042-3.59731 0-1.56292-1.02406-2.65654-1.02406-4.21839V2h28.75799c.84925 0 1.0219 1.09362 1.0219 1.56185 0 1.56615-1.528 2.50476-1.528 4.21946v.31323l19.3968 57.38682s.16834.62216.33884.62216c.16942.4693.67875 1.40577.67875 1.40577.17266.3143 1.70498 2.11834 1.8744 2.27119.341.3143.51365.47253.51365.78361zm-30.91403-25.67414s1.55498 0 1.10608-1.36702l-6.43467-19.07368s-.44675-1.36595-.89565 0l-6.08072 19.07906s-.44675 1.36487 1.105 1.36487zm96.23513 9.34202l-3.38837 16.43975c-.13273.45424-.66796 1.32827-1.6165 1.32827-7.88713 0-39.62775-.16576-46.83613-.01507h-.92694c-.93882 0-4.70164 0-4.70164-1.874 0-.93754 1.35427-1.40685 1.35427-2.18938l-.0054-59.3577c0-2.34654-3.44664-2.49724-3.44664-4.53377 0-.62431.15431-1.56293 1.09637-1.56293h23.3668c.31187 0 .94206.47254.94206.93862v1.56292c0 .9397-2.82616 1.4047-2.98047 3.59516 0 2.41757-.02698 42.29256-.02698 44.66062 0 1.93428.51257 2.34762 1.13845 2.34762h20.91834c2.81752 0 6.7476-.02045 9.0245-.78362 0 0 3.29989-1.12052 4.4092-1.72976 1.45786-.53066 1.77404.6114 1.67908 1.17327zm64.17941-.34552s-3.2524 16.08131-3.49844 16.7885c-.51905 1.4865-1.44815 1.2766-2.45819 1.32465-2.97291.0047-48.49147-.0233-48.49147-.0233-.62156 0-3.4585-.24433-3.4585-1.3401 0-1.25077.63018-1.87508 1.25606-3.128.15755-.62108.31186-1.5597.47157-2.34438 0-.78254.1543-4.37662.1543-5.3163V55.0016c0-7.03423-.46832-39.21516-.46832-46.25477-.15755-2.50046-2.98155-3.12584-2.98155-5.157 0-.62861.68846-.91063 1.31542-1.06954 3.48117 0 47.39295-.00254 50.30436.00499 1.01112.0452 1.93698-.1593 2.45495 1.32504.25467.70288 3.50276 16.49142 3.50276 16.49142.05287.41441-.14892.86973-.63667 1.0441-.41546.14208-.6971.11733-1.0845-.1098-.5525-.31215-4.41567-1.72545-4.41567-1.72545-2.2769-.76316-6.20698-.78684-9.02882-.78684h-17.98642l-1.68232.04413-1.33808.27556c-.46617 0-.39819 1.36702-.39819 1.52094 0 .31323-.15431 1.8783-.15431 2.18938 0 .47146.15431 2.03331.15431 2.18723 0 .47039.15539 2.81692.15539 3.44123.15755.15716.47265.86542.78666 1.0258h7.05407c1.09529-.16038 6.26741-.4736 7.36162-.62968 1.25823-.31 2.04273-1.87831 3.29449-1.87831 1.2539 0 1.2539 1.25292 1.2539 2.19261 0 5.6317.1554 9.81456.1554 15.44194v1.09361c-.46725.62754-.6302.78254-1.4093.78254h-.7802c-.47156-.31215-2.6686-1.09469-3.14017-1.409-.62372-.15392-2.50783-.62538-2.97831-.62538h-11.28414l-.31402.31108v2.45525c0 2.3433.15755 4.06446.31402 6.56923 0 .78253.36473 1.7233.99277 1.7233 1.5075 0 21.84312-.01184 21.84312-.01184 2.82185 0 6.753-.02153 9.03098-.78254 0 0 3.8567-1.41868 4.40704-1.73084.3928-.22389.67444-.24972 1.0899-.10656.48882.17115.6917.62754.6345 1.04303z" fill="#fff"/>
    <path d="M85.484 77.58451L83.68338.23078H1.80384L0 77.58451s-.05913 12.37824 17.5999 16.66931C36.77252 98.91372 42.742 110 42.742 110s5.97055-11.08627 25.14317-15.74618C85.5442 89.96275 85.484 77.58451 85.484 77.58451" fill="#fff"/>
    <g fill="#222">
      <path d="M50.93673 91.54157v.70637h-.7181v1.26931H49.0974v-1.2693h-2.20912v-.6158l2.3994-3.04656h.93094v2.95598zm-3.53353 0h1.6942V89.3847zm-1.54155-2.42863c.34615.36128.51923.85088.51923 1.46667 0 .81314-.2752 1.47745-.8213 1.9951-.54718.51656-1.29645.83794-2.2446.96304l-.0774-.33216.3569-.0604c.27197-.07764.49772-.17901.6794-.30088.1806-.12294.32787-.26637.4429-.43029.11932-.16608.21392-.34402.27627-.53167.06128-.18872.1075-.37853.1376-.57911-.19457.17039-.38377.28362-.56867.33862-.18275.055-.38915.08089-.6192.08089-.19135 0-.37303-.0356-.53858-.11216-.16662-.07441-.31067-.17902-.4343-.31275-.12255-.13157-.2193-.2944-.29132-.48313-.06988-.18765-.10428-.39255-.10428-.61255 0-.47236.17953-.86383.54073-1.17226.35905-.3095.80947-.46588 1.35342-.46588.5848 0 1.05135.18441 1.3932.54892zm-.70305 1.75892l.00323-.10892.00322-.11431.0043-.1305c0-.5349-.06665-.9447-.19242-1.23048-.129-.28579-.29563-.42598-.4988-.42598-.20103 0-.36013.10676-.48375.32568-.12363.21569-.1849.52628-.1849.93716 0 .35696.06235.64167.18705.85412.12577.21137.29347.31598.49665.31598.129 0 .2494-.0248.35797-.07441.10965-.05285.20963-.14883.30638-.2901zm-3.49805-.69343c.19243.22432.28703.48206.28703.77216 0 .4098-.1849.75598-.54933 1.03421-.36872.28255-.86645.4206-1.4964.4206-.5633 0-1.01802-.11756-1.36525-.35913-.3483-.2394-.51923-.54245-.51923-.91774 0-.28902.09138-.5252.27736-.71177.18382-.18549.47837-.32784.87827-.42166-.3182-.14343-.56115-.32677-.72455-.54892-.16555-.22108-.24618-.46804-.24618-.7398 0-.37314.17953-.68481.53213-.93824.35475-.25236.7955-.37745 1.3201-.37745.50633 0 .9159.11 1.23195.33431.31605.22324.473.50147.473.8304 0 .25558-.086.46911-.258.64274-.16985.17255-.42785.31059-.76755.41304.42785.15313.73638.34402.92665.56725zm-1.0578-1.09676c.02473-.16392.0387-.34187.0387-.53383 0-.25666-.05912-.46804-.17415-.62549-.11395-.16068-.27197-.24157-.4773-.24157-.19242 0-.35152.06902-.48052.2049-.1247.13589-.1892.31167-.1892.52197 0 .14774.0301.27176.08385.3699.05482.09814.13437.18549.23865.26098.09137.06794.2236.14559.39237.22863.16985.07872.32358.15637.4558.22323.04838-.11108.086-.24804.1118-.40872zm.00215 2.80068c.1505-.15206.22253-.34833.22253-.59421 0-.1553-.03548-.2847-.09998-.38608-.06665-.10353-.16447-.19628-.2881-.2804-.12577-.0798-.28487-.16068-.4773-.24695-.19027-.08412-.37517-.17147-.55147-.25883-.0731.08736-.13653.22-.19243.39147-.05697.17579-.08278.35912-.08278.5554 0 .32676.07848.5845.2365.76892.1591.18657.36658.27823.62673.27823.25907 0 .46118-.07549.6063-.22755zm-3.1261.14343v.25344h-2.75307v-.25344c.06557-.0043.16985-.01402.31712-.0345.14513-.0151.24618-.03452.29885-.05177.0645-.02373.1161-.06147.15588-.11324.03762-.05392.05805-.1294.05805-.22323v-2.12235h-.84495v-.31814h.18382c.1935 0 .35798-.02157.50203-.06579.1419-.0399.26122-.09274.3526-.15205.0946-.06255.17522-.12726.23435-.1952.06127-.06686.10965-.12402.14727-.17686h.5848c-.00752.14559-.0129.3149-.01935.50902-.00537.19411-.00967.3699-.00967.52196v1.9649c0 .07872.01612.14774.05267.20814.03333.05823.08278.10568.14835.13696.05805.02588.1548.04853.28918.07117.13652.02373.2365.03667.30207.04098z"/>
      <g transform="translate(22.575 78.72549)">
        <path d="M.99652 3.19324C.8428 3.0994.77292 2.97.74713 2.92039c-.17522-.3203.03333-.4896.12578-.59745.2021-.23402.81485-.25882.89225-.25882.19135.00647.4429.06578.55363.14882.1247.10137.20425.25235.09245.37745-.14298.15745-.34078.09275-.5418-.0496-.20103-.13481-.25478-.18442-.4343-.2006-.26768-.03235-.40098.09814-.47085.20922-.0559.08951-.06235.26961.13867.39902.301.20167.77615.34833.85355.3753.10535.03774.52998.1952.80303.49068.32465.34834.58802 1.05147.16447 1.6953-.10427.15205-.29562.34402-.45472.42598-.23328.11862-.53105.15853-.72455.10353-.38378-.11-.54503-.28687-.67403-.45402-.19887-.275-.3225-.67079-.1591-1.1356.17093-.51764.71703-.7797.79658-.83254zm.90516.54137c-.34078.15206-.58373.44108-.54288.91882.01505.1952.08385.62441.3698.9501.19135.21245.40635.19304.51385.16608.14083-.02696.28703-.13265.37195-.31383.10213-.22647.10428-.64382-.08922-1.06333-.18383-.38176-.5375-.61363-.6235-.65784z"/>
        <path d="M.97503 3.1803C.817 3.08754.74498 2.9549.72025 2.90636c-.17952-.32676.03333-.49715.13223-.60823.20317-.23402.8299-.26206.9116-.26206.19457.00323.45257.06578.56652.1499.12793.10137.2064.25451.09567.38177-.1462.16068-.35152.0949-.55685-.04853-.20424-.13589-.258-.18873-.4472-.20167-.27197-.03451-.4085.09814-.4773.21137-.06127.08951-.06557.27392.1376.40333.30853.20706.79658.35265.87613.37853.10535.0399.54395.20167.82237.5004.3311.35157.60093 1.06549.1677 1.71902-.10857.15421-.301.34725-.46654.43137-.23973.12186-.5461.16068-.74176.1046-.39452-.11-.559-.28793-.69122-.4594-.20425-.27716-.3311-.6805-.16233-1.1507.17845-.5241.7353-.7894.817-.84332zm.92665.55107c-.34938.15206-.59878.44755-.55578.93069.0129.19843.08277.6352.37517.96196.1978.21892.41818.1952.5289.17255.1419-.03128.2881-.13696.3784-.3203.10858-.23294.10858-.65568-.0903-1.0795-.18704-.38716-.54824-.6201-.6364-.6654z"/>
        <path d="M3.7926 3.33235c.2623-.44108.85785-.72039 1.49425-.41843.78797.36235 1.00405 1.44833.46332 2.1601-.2752.3796-.7869.54569-1.30827.38392-.85677-.40225-1.07285-1.42245-.6493-2.12559zm1.70925 1.59069c.15802-.36235.05375-1.3502-.40742-1.77726-.47623-.40225-.9288-.08411-1.01158.27285-.1161.4648.03548 1.15715.36658 1.58098.26767.33647.8213.44431 1.05242-.07657z"/>
        <path d="M3.76465 3.31618c.26982-.45079.88365-.7355 1.5351-.42922.80517.37206 1.02662 1.4796.473 2.20755-.28165.385-.80733.5554-1.33945.39147-.87505-.41196-1.09543-1.45049-.66865-2.1698zM5.5169 4.94029c.16232-.37098.0559-1.37931-.41495-1.81607-.48913-.40873-.9503-.08736-1.03523.28039-.1204.47235.03333 1.18088.37303 1.61225.27413.34402.83957.45187 1.07715-.07657z"/>
        <path d="M6.53385 3.24716c.03547-.15638.06557-.4001.16232-.59422.07633-.1553.27843-.25235.42248-.25235.2021 0 .387.15098.42463.28255.1032.37313.215 1.09245.25155 1.40843.03332.33.1892.51657.27305.58667.10212.09274.26445.24588.54932.055.13867-.09922.21607-.25128.27413-.49285.0688-.26853.09352-.70206-.03118-1.14098-.15265-.53166-.48483-.66108-.65897-.74304l.02042-.09382c.74713.19627.99867.60392 1.10725 1.03853.08815.3397.05805.72686-.0344 1.00294-.1247.34725-.3354.52088-.54395.62225-.22898.11108-.50525.16285-.7396.10677-.27305-.0604-.38162-.24373-.4171-.28686-.13007-.14451-.21822-.34187-.25585-.64814-.04837-.3947-.10105-.98892-.19887-1.17657-.05483-.0949-.18705-.14774-.33755-.01186-.07633.06794-.09245.16392-.15158.32784z"/>
        <path d="M6.49622 3.23422c.03333-.16177.0645-.4098.1634-.60824.07848-.16069.28595-.25774.4343-.2599.2064.00216.3956.15421.4343.2901.10643.3796.22038 1.11833.25478 1.44186.03763.33863.19888.5295.28165.60069.10213.0949.27305.25235.56115.05392.14513-.10138.22253-.2556.28273-.50363.06987-.27392.0946-.71716-.03225-1.16686-.15373-.54677-.49558-.67618-.67403-.76245l.0215-.09167c.76218.1995 1.02018.61686 1.12983 1.05902.09245.34941.06342.74627-.03548 1.02667-.12577.35696-.3397.53382-.55685.6395-.2322.11216-.516.16608-.7568.10677-.27735-.0604-.38808-.24804-.4257-.29225-.13007-.1499-.22145-.3505-.26122-.66216-.04945-.40441-.1032-1.0148-.2021-1.20569-.05913-.09706-.19243-.14882-.34508-.01294-.07955.0701-.09782.16931-.15587.33431z"/>
        <path d="M10.02437 1.76863c.00323-.13265.02043-.38824.1032-.61687.19458-.5295.75788-.29333.9245.06363.4171.92637.57728 1.9703.81485 2.63461.05483.16069.14835.29765.24403.35588.1075.07657.22897.09922.3526.04206.20317-.1003.19673-.34078.2193-.42274l.10212-.00647c-.00645.19627.0129.41196-.09137.62549-.09137.18549-.25907.30843-.42462.3052-.19243 0-.38378-.14991-.47516-.3354-.1032-.21137-.33647-1.03206-.44075-1.6349l-.00967.00108-.78905 1.98107-.48375.02804 1.06103-2.70362c-.09783-.3548-.19995-.66647-.33433-.75706-.09675-.07657-.24832-.13696-.4343-.02373-.20962.1251-.19457.29657-.23757.45726z"/>
        <path d="M9.9846 1.75784c.00323-.13588.02042-.39686.10535-.62549.2021-.53921.78153-.30088.9503.06255.42893.93824.59232 1.99726.83205 2.67235.05698.1607.15373.30089.24833.35912.11502.07657.24295.1003.36872.04098.2064-.10137.19995-.34617.22468-.42921l.10105-.00647c-.0043.19735.01397.41843-.09138.6352-.09352.18872-.26552.31274-.4343.31274-.20103 0-.39453-.15745-.49128-.34294-.10642-.21569-.34292-1.045-.44935-1.65647h-.01182l-.8127 2.00911-.49557.02912 1.09435-2.74137c-.1032-.3602-.2064-.67726-.34293-.77-.10105-.07657-.258-.1348-.45042-.02265-.21285.1305-.19995.30412-.2408.46696z"/>
        <path d="M13.545 2.35853c.32035-.39686.95137-.59314 1.54478-.20598.7267.46912.7912 1.5745.1591 2.2054-.32573.33538-.8557.4292-1.3502.19842-.79335-.51549-.86538-1.55833-.35368-2.19784zm1.4749 1.81392c.2107-.34078.2408-1.33078-.15373-1.81608-.41925-.46264-.90945-.21245-1.04275.12726-.17952.44431-.12362 1.155.14405 1.61657.22253.37313.75143.55539 1.05243.07225z"/>
        <path d="M13.52135 2.3402c.33217-.40657.9761-.60824 1.58025-.21461.74713.4799.8127 1.60902.16448 2.25176-.3311.34618-.87398.43785-1.37816.20167-.81162-.52412-.88795-1.58745-.36657-2.23882zm1.5136 1.84843c.21393-.34618.2451-1.35667-.1591-1.85275-.42893-.47127-.92665-.21568-1.06747.13157-.17953.45294-.12685 1.17765.14835 1.65324.22682.37637.7697.56078 1.07822.06794z"/>
        <path d="M17.11723 3.83814c-.00215.14235-.00323.29657.09352.42921.09137.12187.14297.14236.2709.10677.17953-.04745.1849-.2804.21285-.35373h.0989c-.02795.1348-.08815.66108-.6321.62118-.34508-.02157-.4945-.34941-.49235-.48637l.0043-1.26393c0-.68911-.2967-.61686-.46225-.61794v-.10568c.47408-.09598.63855-.17794.91375-.27608z"/>
        <path d="M17.12475 3.84676c-.0043.14775-.00537.30089.0946.43785.09567.12617.14943.14774.28487.11108.18705-.05069.1935-.28902.22145-.36451h.10535c-.02794.13696-.09244.67725-.66112.63843-.3655-.0205-.51815-.35588-.51707-.49716l.00537-1.29412c.00538-.70853-.30422-.63304-.48267-.63304l.00215-.11c.49772-.09598.66972-.18225.95567-.28362z"/>
        <path d="M6.98965 1.84304c-.00537-.08951.05053-.2146.09137-.27608.0903-.12833.1591-.22323.3096-.31382.15373-.08843.30638-.13696.4601-.15098.16018-.0151.29348.03774.4515.11539.09568.0453.26015.17902.36873.29225.07955.08089.09352.15206.11073.22971l-.0172.02912c-.02258-.06579-.06988-.1154-.15696-.21138-.08922-.0895-.19887-.16068-.32895-.2049-.13007-.04637-.26767-.06362-.40957-.0496-.1419.01186-.27305.05176-.39023.12078-.12147.0647-.21177.14667-.301.24265-.0344.03666-.09137.12402-.1075.25127z"/>
        <path d="M6.96708 1.9002c-.01075-.1003.04945-.2405.09137-.30951.0903-.14344.1634-.24912.3182-.35157.15373-.09922.31283-.15206.47408-.16608.16662-.01294.29992.04637.46762.13265.09567.05392.26767.20598.38055.33431.08278.09275.09997.16931.11825.2599l-.01505.03128c-.0258-.07334-.07525-.1305-.16878-.23618-.09245-.10569-.20532-.18333-.3397-.23618-.1333-.05176-.2752-.07225-.42355-.06147-.14405.01294-.28057.05932-.40205.1348-.12362.07442-.21715.165-.30852.26854-.03333.04421-.09353.1402-.1075.2847z"/>
        <path d="M23.21355 4.98667c-.01505.20921-.02473.39362-.0903.60176l-.45902-.02912c.0258-.13588.08277-.29656.09352-.4551l.11288-2.23774c.0129-.32137.15587-.71608.7267-.98784.1548-.0755.32142-.14236.6923-.06147.31497.06578.53212.28686.63425.43676.20747.30412.22467.56079.22037.8455 0 .18764-.07417.53382-.25692.8293-.1892.29873-.45258.46912-.62565.5306-.22683.07333-.40205.07872-.59125.01401-.26553-.09166-.36335-.2297-.40635-.30735zm.06128-1.21755c-.00538.10892.19672.54568.64714.51333.20318-.0151.32895-.07765.44075-.19088.13223-.1251.2322-.33647.27413-.57265.05805-.3203.0129-.61686-.10105-.87568-.0946-.21246-.2924-.48638-.62672-.56942-.1505-.04206-.27305-.01294-.36013.05608-.14835.1197-.22468.25775-.23328.47128z"/>
        <path d="M23.19742 5.00284c-.01397.21353-.02472.40226-.0946.61255l-.46977-.02912c.02795-.13696.08493-.30196.09567-.46156l.1118-2.27118c.01935-.32784.16233-.72794.74928-1.00186.1548-.07657.3268-.14451.70627-.06147.3225.0647.5461.2901.65038.44431.21285.30843.23113.56833.2279.85735 0 .19089-.07632.54138-.26337.84226-.1935.30304-.46333.47559-.6407.53274-.23113.07765-.4128.08196-.6063.01726-.2752-.09275-.3698-.23402-.41603-.31167zm.0602-1.23372c-.00752.11215.2021.55431.66435.52304.20963-.01618.33755-.07873.45043-.19412.13652-.12618.2408-.34079.28272-.5802.05913-.32568.01183-.62657-.10642-.88755-.09568-.21676-.301-.495-.64178-.58127-.1548-.04206-.28165-.01078-.37087.05823-.14943.12079-.22898.26099-.23865.47451z"/>
        <path d="M26.58475 3.89745c-.01075.14128-.02902.29226.0602.43353.07847.12941.13007.15422.26122.12833.17953-.03343.20318-.26313.23543-.33755l.0989.00648c-.0344.13049-.13653.65568-.67188.57372-.34722-.04853-.46977-.38823-.4558-.52627l.0989-1.2553c.05483-.69235-.24617-.64166-.41387-.65353l.0086-.10676c.4816-.05608.65037-.1305.93202-.2049z"/>
        <path d="M26.59013 3.905c-.00968.14775-.02795.30088.0645.44755.08277.13157.13544.15745.26982.12941.19135-.03235.21393-.26853.24832-.34402l.1032.00755c-.0387.13265-.14297.66863-.69982.58667-.3612-.05177-.48697-.39902-.47407-.54245l.10212-1.2855c.05698-.70852-.25692-.65892-.43215-.6697l.00968-.10892c.49772-.05824.6751-.13265.97072-.2103z"/>
        <path d="M30.8869 2.78451l-1.14165-.1003-.00322.01079c.27735.1154.6192.5597.70842.82824.0688.19627.07203.4346-.04838.71392-.07417.17902-.37732.6503-.9761.6945-.1806.00863-.55254.06903-.92557-.20813-.44827-.32677-.60092-.86275-.62135-1.12912-.03225-.4853.13008-.69559.26875-.88108.172-.2297.51493-.36343.6364-.40549.20963-.07117.49343-.12186.7783-.0949l1.36418.11755zm-1.42115-.1251c-.1591-.01186-.45472-.06578-.73638.14883-.27412.20813-.31604.60392-.31282.72578-.00645.47559.17845.8196.36657 1.00294.12686.11431.27413.24588.62566.17902.23112-.0453.38055-.28686.4429-.43353.129-.28578.14297-.6848.05697-.9404-.07955-.25019-.19027-.42166-.4429-.68264z"/>
        <path d="M30.91485 2.76833l-1.16315-.10137-.00108.01079c.28058.11539.63103.5694.72133.8444.0688.19952.07095.44432-.04838.72795-.07417.18225-.387.66431-.9933.7096-.18812.00971-.56437.06903-.946-.21352-.45472-.33216-.6149-.87677-.63317-1.15177-.0344-.495.13007-.71068.27197-.89725.17845-.2351.5246-.37206.65253-.41628.21177-.07225.50202-.12186.79227-.09813l1.3889.12294zM29.46575 2.64c-.1591-.01186-.46118-.06794-.75035.15314-.27627.21245-.31927.61686-.31927.74088-.0043.48314.18274.83578.37732 1.02235.12685.11863.27735.25128.6364.18441.2365-.04637.38592-.29225.4515-.44323.13115-.29118.14512-.69882.05697-.9598-.07955-.2556-.19135-.43138-.45257-.69775z"/>
        <path d="M33.53785 2.70255l-.06665.48421-.8041-.1143-.2451 1.14097c-.04623.20598-.0215.3602.03655.4605.04622.08195.09567.19519.26982.18656.20533-.01294.23758-.1704.31283-.36774l.09352.01294c-.0473.30196-.09997.6298-.44505.77755-.08385.03774-.2967.09705-.48052-.06687-.08063-.07657-.2236-.29657-.17738-.7495.05805-.51765.24295-1.16256.3139-1.43324l-.47407-.06794c-.19673-.0302-.4171.26098-.50955.43892l-.09245-.01294c.1677-.39363.26767-.54353.4601-.70853.15265-.12834.38592-.18226.58157-.15422z"/>
        <path d="M33.5701 2.67882l-.06665.49285-.8299-.1154-.25263 1.16255c-.04945.2103-.02257.36667.03763.46912.0473.08628.10212.19951.28057.19412.20855-.01618.24295-.17363.32035-.37745l.0946.0151c-.04837.3052-.09997.64058-.45795.79156-.08277.03775-.30315.09922-.49342-.07117-.0817-.0755-.2322-.2998-.18275-.76245.05805-.52843.2494-1.18628.32035-1.46343l-.4859-.0701c-.2064-.02912-.43215.2653-.52675.4497l-.09783-.01402c.17308-.40225.27843-.55539.47515-.72362.15695-.1305.3999-.18442.59985-.15745z"/>
        <path d="M34.42795 3.25902c.39882-.32353 1.05242-.38824 1.55123.11216.62135.60715.46117 1.70284-.2881 2.19245-.387.26206-.92558.24372-1.35773-.08304-.67402-.66647-.53428-1.70177.0946-2.22157zm1.08145 2.07706c.26982-.29118.50203-1.25314.215-1.81284-.31605-.53599-.84388-.3904-1.05028-.08304-.26444.39578-.35367 1.10431-.18597 1.61225.14298.40873.62888.69559 1.02125.28363z"/>
        <path d="M34.41183 3.2353c.41064-.32893 1.0793-.39363 1.58884.11539.63318.62117.46763 1.73843-.2967 2.23774-.3956.2696-.946.24912-1.38782-.08627-.69015-.67834-.54717-1.73412.09567-2.26687zM35.518 5.3544c.2752-.29441.51492-1.27686.2193-1.84627-.3225-.55108-.86645-.40226-1.0707-.08736-.27305.4055-.36228 1.12589-.19243 1.64461.14513.41736.64285.71285 1.04383.28902z"/>
        <path d="M37.0273 4.10667c.07848-.14128.18598-.3602.3397-.50902.12577-.12402.3483-.14883.4816-.10461.1935.06902.32143.2696.31175.40441-.0215.385-.14513 1.1054-.215 1.41598-.0731.32677.01613.55324.06988.64598.0645.1154.17092.31706.5031.2254.16662-.04961.28595-.16716.41602-.37638.15265-.23078.31712-.63304.34185-1.0903.02473-.55215-.24725-.78186-.38593-.91882l.05053-.0798c.6407.42814.74498.89402.71057 1.33833-.02257.35265-.17522.71069-.35582.94255-.22898.28686-.4816.38392-.71595.41088-.25048.03236-.5289-.0097-.73208-.13696-.23972-.14558-.28487-.35156-.30315-.40764-.07632-.17902-.09352-.39255-.03332-.69343.08385-.38932.2236-.97167.19027-1.1798-.01935-.10785-.13115-.19628-.31497-.11971-.09675.03882-.14297.1251-.24618.2599z"/>
        <path d="M36.98537 4.09049c.08385-.14559.19135-.37098.35045-.52088.13008-.12726.35583-.15098.4945-.10461.1978.06686.3268.27176.31713.40873-.02042.39578-.1462 1.12911-.21823 1.44617-.07524.33216.01506.56186.07418.65892.0645.11647.17952.32138.51062.2297.17308-.0496.29778-.16823.43108-.38283.1548-.23726.32358-.64706.3483-1.11402.02795-.56079-.2537-.79589-.39453-.935l.04838-.0798c.65897.4346.76755.91127.72993 1.36313-.02258.35912-.17523.72363-.36336.95765-.23327.29657-.4945.39255-.7353.42382-.2537.0302-.54072-.01186-.7482-.14343-.2451-.14775-.29024-.35912-.31174-.4152-.0774-.17902-.09783-.4001-.03333-.70637.08385-.39686.22575-.99108.19243-1.2046-.01828-.10677-.13116-.19952-.3225-.12187-.09783.04206-.14405.12833-.2537.2653z"/>
        <path d="M37.78303 2.89127c.02365-.08843.11932-.18872.17845-.23186.1247-.0949.2236-.16068.3956-.19412.16877-.03343.33002-.0302.4859.00647.15372.03883.258.13373.38485.25883.0731.07441.18812.25666.25262.39686.04515.10353.0387.17686.02903.25559l-.02258.02265c-.00537-.07226-.02902-.13373-.08278-.24912-.05267-.1197-.13544-.22108-.24294-.3052-.10536-.08735-.23006-.15098-.36873-.18225-.13975-.03667-.27305-.03883-.4085-.01618-.13437.0248-.25047.06902-.36227.12833-.04838.02912-.13008.0906-.18598.20598z"/>
        <path d="M37.754 2.91392c.02365-.09921.11933-.20706.18275-.25667.13115-.1046.23112-.17794.40957-.21784.17415-.03666.34185-.03343.50095.00647.15803.04098.2666.1456.39775.2847.07633.07981.19243.27717.26016.43246.04514.11647.03977.1952.02794.28147l-.0258.02588c-.00214-.07657-.02794-.14666-.0817-.27392-.0559-.13049-.13974-.24157-.2494-.33755-.10964-.09274-.23757-.1596-.38054-.19627-.14298-.03883-.2838-.04098-.42355-.0151-.1376.0302-.258.07657-.3741.14559-.05053.02696-.1333.1003-.19458.22755z"/>
        <path d="M20.79265 2.22804l.41173-.68265c.1419-.22431.2279-.39686.23434-.50255.00215-.09274-.07955-.13372-.26552-.1402l.00322-.13911c.16985.01078.34293.01941.5074.02804.15803.0054.32035-.00108.47623.0054l-.00645.13587c-.29993-.00647-.42248.12187-.61813.42598l-.64822 1.04177.8213 1.49794c.07525.1402.12362.20814.20963.32892.09244.12618.11072.12726.21714.1305l-.00537.1391c-.20533-.00754-.40958-.0248-.61275-.03019-.14297-.00647-.29455-.00647-.44075-.00323l.00215-.13804c.04085 0 .24295.00539.24402-.06255l-.07417-.19735-.65038-1.24667-.57082.94902c-.04623.08196-.18705.29765-.1892.40872-.00752.11216.18275.1154.31175.11971l-.00752.13588c-.1548-.00323-.32358-.01833-.48268-.02372-.16555-.00432-.33755-.00432-.50848-.00432l.0043-.13911c.05698.00215.12685.00539.19673-.01834.09567-.03343.18597-.06902.4644-.51225l.68478-1.09245-.82883-1.53138c-.04945-.0949-.15588-.25774-.39237-.26529l.00537-.13696c.2107.01078.44075.02372.65145.02696.15265.00647.32465 0 .47945.00647l-.00108.13696c-.20962-.00647-.22575.03451-.22575.10137-.00215.02696-.00967.08089.10428.30304z"/>
        <path d="M20.79372 2.22157l.4214-.69343c.14298-.22324.23113-.40226.23758-.50794.00107-.0949-.08063-.13696-.27198-.14344L21.1861.7355c.172.01186.34937.02157.516.02804.16232.0054.32357 0 .48267.00431l-.00645.13804c-.30422-.00755-.42892.1251-.62995.43569l-.6579 1.05794.83743 1.52059c.0774.14127.12362.21353.21177.33323.09568.12834.1161.12942.22575.13265l-.00752.14127c-.20748-.00539-.41818-.02588-.62565-.0302-.14513-.00754-.29778-.0043-.44828-.0043l.0043-.13912c.03763 0 .2451.00539.24618-.06147l-.07633-.20383-.66005-1.26392-.58372.96088c-.04838.08628-.19135.30304-.19565.41628-.00323.11323.19027.11647.32142.12186l-.00537.1402c-.16018-.00432-.33325-.0205-.49343-.02696-.16985-.00432-.344-.00432-.51922-.00432l.00537-.1402c.05805.00324.12685.00432.19458-.0194.09997-.03451.19457-.07118.47837-.51765l.69768-1.11294-.84495-1.5551C19.5994.99 19.49405.82392 19.25217.81637l.00538-.13804c.21393.01187.44827.0248.66435.0302.1548.00431.33002 0 .48805.0054l-.00215.1391c-.21285-.00646-.2279.03452-.23113.10246 0 .02696-.00645.08196.11073.30735z"/>
      </g>
      <path d="M38.97757 44.99405c-3.7306-1.3799-19.7741-8.29068-4.45502-23.79425C46.17447 9.4104 42.6517 4.90794 41.40577.47235c1.13843 4.04736 8.5828 7.6051-4.76654 22.0604-12.12828 13.13222-.203 20.3768 2.55378 22.30494 1.98156-1.45251 3.31868-2.83163 3.54684-3.07112l.00537.00108c.51063.53813 6.5747 6.77902 12.9903 6.77902l.79228 1.56588 10.17702.47774c-2.31877 6.24628-6.05117 11.98569-14.31147 12.11079-1.73612 1.6953-3.827 2.94196-6.12965 3.5804.96965 1.7298 2.89175 4.1444 6.0716 4.1444l.94278 2.1601H32.207l.9417-2.1601c3.17985 0 5.10302-2.4146 6.0759-4.1444-2.30373-.63844-4.39568-1.8851-6.13288-3.5804-8.25922-.1251-11.9927-5.86451-14.31255-12.11079l10.17488-.47774.79765-1.56588c3.44452 0 6.78886-1.80174 9.22587-3.55262zm15.80658 14.73487c1.80385-.39902 3.51417-1.26284 5.06325-2.7047 1.06747-.99216 2.1328-2.33265 2.62945-3.46393h-5.29653c-.42247 2.26147-1.2513 4.34824-2.39617 6.16863zM23.00822 53.5603c.49773 1.13128 1.56198 2.47177 2.62945 3.46393 1.54908 1.44186 3.2594 2.30568 5.0611 2.7047-1.14272-1.8204-1.97047-3.90716-2.39402-6.16863zm20.61743-17.76068s-6.47688-5.4752-4.31828-10.95255c2.16183-5.4752 4.06673-7.75824 4.06673-7.75824s-2.0296 4.22422 1.39965 8.44412c3.43247 4.22098-1.27065 10.38206-1.1481 10.26667zm4.14627-13.37686c4.988 4.52294 7.02835 8.29637.6794 16.58627 2.18225-2.98618 3.85495-8.79569-.6794-16.58627z"/>
    </g>
  </g>
</svg>
