<svg xmlns="http://www.w3.org/2000/svg" xmlns:xlink="http://www.w3.org/1999/xlink" viewBox="0 0 1024 1024">
  <defs>
    <path id="a" d="M0 .609h700v897.099H0z"/>
  </defs>
  <g fill="none" fill-rule="evenodd">
    <path fill="#215" d="M0 0h1024v1024H0z"/>
    <g transform="translate(162 62)">
      <g transform="translate(0 3)">
        <mask id="b" fill="#fff">
          <use xlink:href="#a"/>
        </mask>
        <path fill="#FFF" d="M700.00001 633.0037L685.24167.60858H14.75833L-.00002 633.0037S-.48125 734.20367 144.1125 769.2775C301.10208 807.3699 350.00486 898 350.00486 898s48.89792-90.6301 205.88264-128.7225c144.59375-35.07383 144.11251-136.2738 144.11251-136.2738" mask="url(#b)"/>
      </g>
      <path fill="#215" d="M141.98586 599.51953s-4.44662-19.06148-4.7595-19.9206c-.65893-1.78357-1.66392-1.53236-2.77795-1.58763-4.01523-.01507-54.81002-.01507-58.83 0-1.11402.05527-2.11901-.19594-2.77795 1.58762-.31287.85913-4.82112 19.92061-4.82112 19.92061-.08533.49236.10904 1.04502.63523 1.25603.45036.17584.749.14067 1.19936-.1256.63049-.38184 4.94437-2.08501 4.94437-2.08501 2.54567-.92444 6.85955-1.19072 9.95512-1.19072l8.55192.03015c1.31787.0402 1.21832 1.11033 1.21832 1.2912 0 2.00964.03318 50.5476.03318 51.0902 0 1.45197-.34606 3.64248-1.04292 5.09947-.50723.91439-1.53593 1.64791-1.53593 2.74317 0 .5426.41717 1.37158.92914 1.37158h23.44193c.3508-.17584.88174-1.37158.88174-1.73834 0-.90937-2.26597-2.40153-2.44137-4.22026-.16592-1.27612-.13748-54.13481-.13748-54.13481 0-.18087.09481-.58782.5025-1.00985.42665-.40695 1.16617-.49236 1.33683-.49236.0237 0 8.7605-.03015 8.7605-.03015 3.09557 0 7.4142.26628 9.95512 1.19072 0 0 4.31388 1.70317 4.9349 2.085.4456.26628.749.30145 1.19935.1256.52146-.211.71582-.76366.64471-1.25602M222 581.1421v-.90212c0-.7267 0-1.278-.56201-1.8293-2.81006 0-16.3134-.35583-19.12849-.35583h-2.9907c-1.5054 0-6.0015-.54629-6.0015 1.80925 0 1.278.92833 2.00972.92833 2.91685 0 1.08755-.92832 2.37057-1.30467 3.09728l-9.37858 15.27588-.74767 1.26798h-.38137s-.93334-.90212-1.119-1.09257c-.1957-.36085-1.12403-1.81426-1.31471-1.99468l-7.49684-12.7249c-.56201-1.09757-1.12403-2.556-1.12403-3.82899 0-1.45843 1.31471-2.18012 1.31471-3.45812 0-.53626-.57205-1.26798-1.12904-1.26798h-30.00744s-.55699.54127-.55699.73172v.53626c0 .35583 0 .7267.557.91715 1.69105.54628 2.6294 1.08254 3.74841 2.36055.19069.37087 2.07744 2.7264 2.44375 3.2777.37133.36084 1.31471 1.80925 1.49536 1.99468l21.33137 36.37545c.54194.73673 1.08388 2.37057 1.27958 3.2777v8.73051c0 5.82368 0 10.5548-.36631 16.18803-.19068.91715-.55198 1.8293-.91327 2.54598-.36631.91214-1.27958 1.278-1.27958 2.37057 0 .36586 0 1.63885.54696 1.63885h24.39735c.37634 0 .55699-.91214.55699-1.27299 0-1.64386-1.63586-2.556-1.8165-4.36525-.19069-1.64387-.55198-6.01413-.55198-6.18954v-20.91915l24.88409-40.56028c.18567 0 .7527-.73172.93334-.91214.57205-.54127 3.19143-3.09227 3.75344-3.63855m85.07907 16.32679c-.1707-1.81048-.1707-3.63099-.1707-5.46152 0-2.72324 0-5.44648.67807-8.00421 0-.18556.1707-.37113.1707-.54666.34615-.7272 1.55056-2.18661 1.55056-3.26989 0-.7272-.3414-1.83053-1.2044-1.83053h-23.22992s-.51685.37613-.51685.55167v1.08829c1.54582 2.73326 2.92093 5.64708 3.10111 9.10754 0 3.09436.34615 17.2923.34615 20.2011v4.18767c0 1.63996 0 4.0021-.17544 5.63705h-.1707s-.68756-.72218-.85827-.89771c-.35089-.37614-1.37985-1.82552-1.37985-2.01108l-17.3928-27.84924c-.15648-.18556-1.2044-2.1816-1.36088-2.9088-.34615-.73221-.17545-1.45941-.17545-2.00607 0-1.4544.68282-2.5477.68282-3.99709 0-.55166-.16597-1.45941-.85352-1.45941h-29.09074c-.68281 0-1.02896.73221-1.02896 1.26884 0 1.46443 1.55056 2.36716 2.23811 3.65104.50737.89772.85826 2.1816.85826 3.45044v3.46046c0 4.3632-.1707 8.74144-.1707 13.28519 0 11.10358.1707 22.20717.1707 33.31577v11.2741l-.85826 5.6521c0 1.08829-1.20915 2.54269-1.89196 3.2749v.7272c0 .7272.33666 1.63996 1.2044 1.63996h23.39588c.69704 0 .69704-.55668.69704-1.27385v-.36611c-1.03845-1.82552-2.24285-3.64101-2.57952-5.64708-.1707-1.0883-.70178-6.00817-.70178-7.10148v-4.90484l.87248-23.85214.16597-1.26382c.863.89771 2.24285 2.54269 2.75496 3.45043l21.6841 34.2185c0 .18055.863 1.63996 1.0337 2.36716.34615.3611.34615.54164.34615.90775 0 .73221-.68281 1.09832-.68281 1.82552 0 1.08328 1.02896 1.63996 1.88722 1.63996h22.88376c.5216 0 .6923-.55668.6923-1.27385 0-1.64498-2.57952-3.09938-2.57952-5.6521l-.3414-54.60516M390 641.151v-41.8566c0-.54665-.18194-3.09436-.18194-3.82156-1.42599-8.91196-6.23993-14.73958-14.8057-16.37954-2.15373-.3611-5.71378-1.09331-7.67575-1.09331h-44.61378c-.17702 0-.35896.73221-.35896.90775 0 1.63996 3.03392 2.9138 3.03392 4.54875v68.98366c0 2.72825-3.39779 5.09541-3.39779 5.82763 0 .17553.18685.73221.54581.73221h40.15388l12.84865-.73221c1.603 0 3.56005-.18055 4.99096-.90775C386.43011 655.16841 390 647.1642 390 641.15101m-20.52932-7.45254c0 4.54374-5.16798 5.82763-8.73787 5.82763h-14.10254c-1.21455.12538-.8851-2.07628-.8851-4.36822 0 0 .03934-31.96167.03934-34.95071-.059-.97294.31962-1.63495 1.20472-1.63495h15.71046c3.25519 0 6.40712 1.63495 6.75624 4.54375 0 .7272.01475 30.5825.01475 30.5825M485 657.36912c0-.35406-.19183-.54356-.57548-.90759-.20166-.17952-1.94286-2.259-2.13468-2.62802 0 0-.58532-1.08212-.77715-1.63067-.19674 0-.39349-.72307-.39349-.72307l-22.08465-66.42352v-.35904c0-1.98972 1.73628-3.08182 1.73628-4.88203 0-.54855-.19183-1.81518-1.1608-1.81518H426.8618v.9026c0 1.81518 1.1608 3.07683 1.1608 4.88702 0 1.26663-.19183 2.71778-.5804 4.15895l-19.56631 65.16186c-.59515 2.17423-3.87588 3.07683-3.87588 4.88702 0 .17952 0 .90759.57548.90759h26.93442c.77714 0 1.17063-.72807 1.17063-1.26664 0-1.81517-1.75595-3.26133-1.75595-5.06654 0-.91257.19675-6.8867 2.14452-6.8867h21.50917s.57548 0 .57548.17953c.20167 0 .3935.1895.3935.1895l1.3477 5.78462s.31479 2.02961 0 2.8973c-.30988.87268-1.1608 1.90993-1.1608 2.81253v.54356c.50662.9375 1.55429.9077 2.33143.9077h3.29057c6.59096 0 13.18192-.02006 19.76305-.02006h1.75595c1.59364.04987 2.12485-.88764 2.12485-1.61072m-35.20263-29.71605h-12.75401c-1.77563 0-1.2641-1.5808-1.2641-1.5808l6.92544-22.0913c.51646-1.57083 1.028 0 1.028 0l7.32383 22.0913c.51154 1.5808-1.25916 1.5808-1.25916 1.5808m109.18508 10.64654c.10842-.64736-.25628-1.98222-1.91715-1.36497-1.2666.7126-5.03683 2.01735-5.03683 2.01735-2.59235.88823-7.08213.9083-10.30038.9083h-23.86827c-.71462 0-1.3011-.47171-1.3011-2.73496 0-2.75503.03943-49.2042.03943-52.01945.1725-2.54928 3.39074-3.09628 3.39074-4.19026v-1.82164c0-.53695-.71462-1.09398-1.06453-1.09398h-26.66762C491.17742 578 491 579.09398 491 579.82163c0 2.37365 3.9378 2.5543 3.9378 5.28425l.00493 69.15185c0 .90329-1.55245 1.4553-1.55245 2.53925 0 2.18797 4.3025 2.18797 5.38182 2.18797h1.05468c8.2255-.18066 44.43452.01505 53.43379.01505 1.08917 0 1.69537-1.0137 1.84815-1.54563l3.87373-19.15476m74.0073-.41835c.0642-.4821-.1728-1.01945-.72575-1.20526-.47397-.17577-.79983-.15066-1.24417.1155-.63196.36158-5.03591 2.00877-5.03591 2.00877-2.60683.8939-7.1046.92403-10.32362.92403 0 0-23.25901.01004-24.97714.01004-.7159 0-1.13062-1.0998-1.13062-2.00374-.1876-2.92275-.36535-4.91645-.36535-7.65841v-2.8625l.36535-.36157h12.89589c.53815 0 2.69076.54739 3.4017.72818.5431.35655 3.05118 1.28058 3.58933 1.63714h.89857c.88869 0 1.06642-.18079 1.61445-.91399v-1.27054c0-6.56364-.18761-11.44493-.18761-18.00355 0-1.08975 0-2.55113-1.42684-2.55113-1.43672 0-2.32541 1.82295-3.772 2.18453-1.24417.18581-7.16383.54237-8.41294.7332h-8.06733c-.35548-.19083-.72083-1.0094-.89857-1.1902 0-.7332-.18267-3.46511-.18267-4.01752 0-.17075-.1728-2.00374-.1728-2.5461 0-.36159.1728-2.18956.1728-2.55114 0-.18581-.07406-1.77273.4641-1.77273l1.52558-.3214 1.92056-.05023h20.57318c3.21904 0 7.7168.02511 10.31868.90897 0 0 4.41383 1.64719 5.04085 2.01379.44435.26616.77514.30131 1.24417.12554.5579-.19585.78501-.73822.72577-1.22032 0 0-3.71276-18.39023-3.99911-19.21885-.5974-1.72754-1.65395-1.4915-2.81419-1.5367C620.6814 578 570.48026 578 566.5009 578c-.71589.19083-1.5009.52228-1.5009 1.25046 0 2.37034 3.2289 3.0935 3.40665 6.01122 0 8.20078.53321 45.7245.53321 53.92025v5.65467c0 1.09478-.17774 5.28305-.17774 6.187-.17773.91398-.35547 2.01378-.53321 2.74196-.72577 1.46137-1.43178 2.18453-1.43178 3.64088 0 1.27557 3.2289 1.56182 3.9448 1.56182 0 0 52.03283.04017 55.43453.03013 1.16024-.05022 2.22173.19585 2.80926-1.54675.29129-.81857 4.00404-19.57038 4.00404-19.57038M305.86933 753.72672c-.536-.04122-1.3569-.15973-2.48684-.35038-1.12512-.20611-1.91705-.42252-2.3951-.64924-.54083-.27824-.94645-.68015-1.23135-1.20057-.28008-.51012-.42494-1.12329-.42494-1.83435v-17.24084c0-1.3603.02897-2.89065.07726-4.59619.05795-1.70553.11106-3.19465.169-4.47252h-4.85296c-.2994.45344-.69053.97901-1.19755 1.56642-.50703.5771-1.1541 1.1542-1.95085 1.70553-.76296.53072-1.72872.97385-2.90696 1.3603-1.16857.3607-2.54962.55134-4.14796.55134H283v2.7979h6.98249v18.64752c0 .82958-.16418 1.47882-.4684 1.94256-.31387.4792-.74847.80381-1.29413.99962-.44908.16488-1.26032.31946-2.46753.47404-1.2072.15973-2.08605.25764-2.63654.29886v2.23626h22.75344v-2.23626zm34.53096-16.23607c-1.56937-1.95802-4.119-3.63263-7.64887-4.98779 2.81038-.89656 4.92058-2.10744 6.34026-3.62233 1.41967-1.52519 2.11985-3.41106 2.11985-5.63702 0-2.91641-1.29413-5.33817-3.8872-7.29618-2.6124-1.96832-6.0119-2.94733-10.1985-2.94733-4.31696 0-7.94824 1.10782-10.87934 3.32863-2.93593 2.2105-4.39907 4.96202-4.39907 8.23912 0 2.38568.67604 4.55496 2.02811 6.49236 1.35207 1.94256 3.34638 3.56565 5.9974 4.83321-3.30774.82443-5.72698 2.05076-7.26738 3.69962-1.53074 1.6231-2.30335 3.71507-2.30335 6.24504 0 3.2771 1.43416 5.96164 4.30248 8.06393 2.87316 2.09714 6.62516 3.14828 11.28015 3.14828 5.20548 0 9.31481-1.23149 12.34248-3.67385 3.02285-2.45783 4.5391-5.48245 4.5391-9.08932 0-2.55572-.79192-4.8229-2.36612-6.79637zm-8.73535-9.65095c-.20764 1.43244-.52634 2.62786-.92714 3.60686-1.10097-.5874-2.3468-1.2521-3.75683-1.97347-1.40036-.72652-2.48684-1.39637-3.25946-1.99408-.84021-.64924-1.48728-1.40668-1.94602-2.28264-.4539-.87595-.68569-1.95286-.68569-3.25133 0-1.86012.52151-3.39046 1.56454-4.59103 1.04303-1.20058 2.36613-1.79313 3.96447-1.79313 1.68526 0 2.99388.70076 3.94515 2.10744.94645 1.39638 1.41002 3.23073 1.41002 5.51336 0 1.69008-.1014 3.24103-.30904 4.65801zm.0338 24.61946c-1.21204 1.33454-2.88281 1.99924-5.02681 1.99924-2.13917 0-3.85824-.80897-5.16685-2.43722-1.30861-1.6334-1.96533-3.87996-1.96533-6.77576 0-1.70038.23178-3.32347.69535-4.85382.45874-1.52519.9899-2.67939 1.59834-3.44198 1.439.7626 2.95524 1.53034 4.54876 2.26202 1.59351.7523 2.90695 1.47882 3.93066 2.17958 1.02855.73168 1.8253 1.5458 2.38062 2.44752.55531.90172.83056 2.0353.83056 3.40592 0 2.1435-.60844 3.88511-1.8253 5.2145zm43.40634-24.33607c-2.849-3.1998-6.69276-4.79198-11.52158-4.79198-4.46667 0-8.19453 1.3603-11.16909 4.06546-2.97938 2.72576-4.46183 6.15229-4.46183 10.29503 0 1.9374.28007 3.73569.85953 5.39485.58429 1.65916 1.38587 3.071 2.40958 4.25095 1.01406 1.1645 2.2116 2.07138 3.59265 2.74123 1.37622.66984 2.85867.99446 4.4377.99446 1.88807 0 3.6023-.23702 5.11855-.72137 1.51143-.4792 3.0808-1.47882 4.69846-2.98855-.25593 1.7519-.64224 3.44198-1.14927 5.09599-.52151 1.64886-1.2748 3.21011-2.26955 4.67863-.96093 1.43244-2.18263 2.67939-3.67473 3.7666-1.48246 1.07175-3.35604 1.95286-5.61593 2.64332l-2.92627.53588.63257 2.91641c7.8372-1.10267 14.00844-3.92634 18.52822-8.46584 4.52944-4.53435 6.78933-10.38263 6.78933-17.51908 0-5.39485-1.42933-9.69218-4.27834-12.89199zm-5.80908 15.46317c-.01932.24733-.0338.41221-.0338.52042-.76779 1.23149-1.61283 2.07137-2.511 2.5248-.89333.4483-1.8784.68016-2.95524.68016-1.69009 0-3.05182-.93263-4.08518-2.80305-1.04786-1.85496-1.55489-4.36432-1.55489-7.49714 0-3.59656.50703-6.34294 1.51625-8.24427 1.02855-1.90134 2.3613-2.84943 3.99345-2.84943 1.69491 0 3.06147 1.25725 4.12381 3.75114 1.05269 2.4939 1.57903 6.10077 1.57903 10.81546 0 .371-.00483.7626-.02414 1.14905-.01932.38645-.02898.72652-.02898.99961 0 .3916 0 .70592-.01931.95325zM417 749.4603h-5.9298v-25.954h-7.70198l-19.79337 26.74752v5.41545h18.2578v11.15039h9.23755v-11.15039H417v-6.20897zm-29.18061 0l14.01326-18.93606v18.93606h-14.01326zM175 366.56127l74.31859-3.44464 5.80896-11.27247c46.83846 0 91.1245-44.97378 94.84067-48.84416l.06356.01451c3.73085 3.87038 48.01688 48.82965 94.85534 48.82965l5.80896 11.27247L525 366.56127c-16.92815 45.00765-44.19802 86.34812-104.5125 87.2383-12.68388 12.21104-27.95443 21.18548-44.77989 25.7864 7.09007 12.47228 21.13818 29.86479 44.35938 29.86479L426.95169 525H273.06298l6.87492-15.54924c23.23098 0 37.2742-17.3925 44.35449-29.8648-16.8108-4.60091-32.08134-13.57535-44.76522-25.78639-60.31448-.89018-87.59413-42.23065-104.52717-87.2383m262.95352 65.83996c13.16308-2.88344 25.66116-9.1099 36.97104-19.48735 7.80396-7.14085 15.58348-16.78777 19.19697-24.93975H455.4391c-3.07563 16.26526-9.12908 31.32103-17.48558 44.4271m-232.07016-44.4271c3.62327 8.15198 11.393 17.7989 19.19697 24.93975 11.31966 10.37744 23.80796 16.60391 36.98082 19.48735-8.3614-13.10607-14.41484-28.16184-17.50025-44.4271h-38.67754"/>
      <path fill="#215" d="M383.65173 156.10502c32.5089 56.94231 20.52689 99.3938 4.8773 121.23313 45.51342-60.6043 30.88634-88.18205-4.8773-121.23313m-29.71982 97.76897c-.88329.84432 32.82574-44.20393 8.23284-75.05586-24.5929-30.83721-10.04262-61.69897-10.04262-61.69897s-13.64779 16.68508-29.15337 56.70179c-15.48637 40.02652 30.96315 80.05304 30.96315 80.05304m-50.1027-96.96393c89.4091-98.68201 48.71056-127.88459 36.3205-155.40834-.87369-1.9439-1.0417-2.02244-.43204-.108 9.8122 30.74395 27.598 64.65408-51.0676 145.77233C164.60068 275.11445 327.37562 323 325.85867 323c-4.56046-6.9607-117.72237-60.46685-22.02944-166.08994"/>
    </g>
  </g>
</svg>
